\relax 
\@writefile{toc}{\contentsline {section}{\numberline {1}Introduction}{1}}
\@writefile{toc}{\contentsline {section}{\numberline {2}Initial Idea Proposal}{1}}
\@writefile{toc}{\contentsline {section}{\numberline {3}Initial and Final States of Code}{2}}
\@writefile{toc}{\contentsline {section}{\numberline {4}Description and Working of Parts}{2}}
\@writefile{toc}{\contentsline {subsection}{\numberline {4.1}Horizontal Plaform and the Moving balls}{2}}
\@writefile{toc}{\contentsline {subsection}{\numberline {4.2}Dominos and Rotating plank}{3}}
\@writefile{toc}{\contentsline {subsection}{\numberline {4.3}Dominos and Set of Pendulums}{3}}
\@writefile{toc}{\contentsline {subsection}{\numberline {4.4}Another Rotating plank and a ball}{3}}
\@writefile{toc}{\contentsline {subsection}{\numberline {4.5}Pulley system and Rotating platform}{4}}
\@writefile{toc}{\contentsline {subsection}{\numberline {4.6}Ball on rotating platform and quarter circular paths}{4}}
\@writefile{toc}{\contentsline {subsection}{\numberline {4.7}Piston and a small rod holding the balloon}{4}}
\@writefile{toc}{\contentsline {section}{\numberline {5}Profiling and Call Graphs}{5}}
\@writefile{toc}{\contentsline {section}{\numberline {6}Difficulties faced during Project}{6}}
\@writefile{toc}{\contentsline {section}{\numberline {7}References}{6}}
\@writefile{toc}{\contentsline {section}{\numberline {8}Honour Code}{6}}
\@writefile{toc}{\contentsline {section}{\numberline {9}Percentage of Effort}{6}}
